Your Title
…
df <- read_csv('survey lung cancer.csv')

Rows: 309 Columns: 16

── Column specification ────────────────────────────────────────────────────────
Delimiter: ","
chr  (2): GENDER, LUNG_CANCER
dbl (14): AGE, SMOKING, YELLOW_FINGERS, ANXIETY, PEER_PRESSURE, CHRONIC DISE...

ℹ Use `spec()` to retrieve the full column specification for this data.
ℹ Specify the column types or set `show_col_types = FALSE` to quiet this message.

print(df)

# A tibble: 309 × 16
   GENDER   AGE SMOKING YELLOW_FINGERS ANXIETY PEER_PRESSURE `CHRONIC DISEASE`
   <chr>  <dbl>   <dbl>          <dbl>   <dbl>         <dbl>             <dbl>
 1 M         69       1              2       2             1                 1
 2 M         74       2              1       1             1                 2
 3 F         59       1              1       1             2                 1
 4 M         63       2              2       2             1                 1
 5 F         63       1              2       1             1                 1
 6 F         75       1              2       1             1                 2
 7 M         52       2              1       1             1                 1
 8 F         51       2              2       2             2                 1
 9 F         68       2              1       2             1                 1
10 M         53       2              2       2             2                 2
# ℹ 299 more rows
# ℹ 9 more variables: FATIGUE <dbl>, ALLERGY <dbl>, WHEEZING <dbl>,
#   `ALCOHOL CONSUMING` <dbl>, COUGHING <dbl>, `SHORTNESS OF BREATH` <dbl>,
#   `SWALLOWING DIFFICULTY` <dbl>, `CHEST PAIN` <dbl>, LUNG_CANCER <chr>
…
df

# A tibble: 276 × 16
   GENDER   AGE SMOKING YELLOW_FINGERS ANXIETY PEER_PRESSURE `CHRONIC DISEASE`
    <dbl> <dbl>   <dbl>          <dbl>   <dbl>         <dbl>             <dbl>
 1      1    69       0              1       1             0                 0
 2      1    74       1              0       0             0                 1
 3      0    59       0              0       0             1                 0
 4      1    63       1              1       1             0                 0
 5      0    63       0              1       0             0                 0
 6      0    75       0              1       0             0                 1
 7      1    52       1              0       0             0                 0
 8      0    51       1              1       1             1                 0
 9      0    68       1              0       1             0                 0
10      1    53       1              1       1             1                 1
# ℹ 266 more rows
# ℹ 9 more variables: FATIGUE <dbl>, ALLERGY <dbl>, WHEEZING <dbl>,
#   `ALCOHOL CONSUMING` <dbl>, COUGHING <dbl>, `SHORTNESS OF BREATH` <dbl>,
#   `SWALLOWING DIFFICULTY` <dbl>, `CHEST PAIN` <dbl>, LUNG_CANCER <dbl>
…
# Based on the visualizations, it is evident that the features GENDER, AGE, SMOKING, and SHORTNESS OF BREATH show minimal correlation with LUNG CANCER in the dataset. Therefore, we can remove these features to streamline and refine the dataset.

df_new <- df %>% select(-GENDER, -AGE, -SMOKING, -`SHORTNESS OF BREATH`)
names(df_new) <- gsub(" ", "_", names(df_new))

print(names(df_new))

 [1] "YELLOW_FINGERS"        "ANXIETY"               "PEER_PRESSURE"        
 [4] "CHRONIC_DISEASE"       "FATIGUE"               "ALLERGY"              
 [7] "WHEEZING"              "ALCOHOL_CONSUMING"     "COUGHING"             
[10] "SWALLOWING_DIFFICULTY" "CHEST_PAIN"            "LUNG_CANCER"          

print(df_new)

# A tibble: 276 × 12
   YELLOW_FINGERS ANXIETY PEER_PRESSURE CHRONIC_DISEASE FATIGUE ALLERGY WHEEZING
            <dbl>   <dbl>         <dbl>           <dbl>   <dbl>   <dbl>    <dbl>
 1              1       1             0               0       1       0        1
 2              0       0             0               1       1       1        0
 3              0       0             1               0       1       0        1
 4              1       1             0               0       0       0        0
 5              1       0             0               0       0       0        1
 6              1       0             0               1       1       1        1
 7              0       0             0               0       1       0        1
 8              1       1             1               0       1       1        0
 9              0       1             0               0       1       0        0
10              1       1             1               1       0       1        0
# ℹ 266 more rows
# ℹ 5 more variables: ALCOHOL_CONSUMING <dbl>, COUGHING <dbl>,
#   SWALLOWING_DIFFICULTY <dbl>, CHEST_PAIN <dbl>, LUNG_CANCER <dbl>
…
YELLOW_FINGERS and ANXIETY have a correlation of 0.56, showing a strong positive correlation. None of the other positive correlations are as high. For example, FATIGUE and CHRONIC_DISEASE have a correlation of -0.10, which is hardly linear. Most of the correlations between the variables are close to 0, which suggests that the variables may be independent or have a non-linear relationship.

library(caret)

Loading required package: lattice

df_new$ANXYELFIN <- df_new$ANXIETY * df_new$YELLOW_FINGERS
print(df_new)

# A tibble: 276 × 13
   YELLOW_FINGERS ANXIETY PEER_PRESSURE CHRONIC_DISEASE FATIGUE ALLERGY WHEEZING
            <dbl>   <dbl>         <dbl>           <dbl>   <dbl>   <dbl>    <dbl>
 1              1       1             0               0       1       0        1
 2              0       0             0               1       1       1        0
 3              0       0             1               0       1       0        1
 4              1       1             0               0       0       0        0
 5              1       0             0               0       0       0        1
 6              1       0             0               1       1       1        1
 7              0       0             0               0       1       0        1
 8              1       1             1               0       1       1        0
 9              0       1             0               0       1       0        0
10              1       1             1               1       0       1        0
# ℹ 266 more rows
# ℹ 6 more variables: ALCOHOL_CONSUMING <dbl>, COUGHING <dbl>,
#   SWALLOWING_DIFFICULTY <dbl>, CHEST_PAIN <dbl>, LUNG_CANCER <dbl>,
#   ANXYELFIN <dbl>
…
